…
    ## # A tibble: 6 x 5
    ##   Pretty                               gender     mean      low     high
    ##   <fct>                                <fct>     <dbl>    <dbl>    <dbl>
    ## 1 Days to previous full blood donation male    0.0152   0.00691  0.0241 
    ## 2 Age                                  male    0.00742 -0.0190   0.0349 
    ## 3 Previous donation deferred           male    0.171    0.0523   0.303  
    ## 4 Year                                 male   -0.0166  -0.0299  -0.00366
    ## 5 Warm season                          male   -0.0684  -0.0758  -0.0611 
    ## 6 Consecutive deferrals                male   -0.00380 -0.0303   0.0232 
    ## # A tibble: 22 x 5
    ##    Pretty                           stripe Variable            Importance gender
    ##    <fct>                            <fct>  <chr>                    <dbl> <fct> 
    ##  1 Days to previous full blood don… 1      days_to_previous_fb    0.0256  both  
    ##  2 Age                              0      age                    0.0149  both  
    ##  3 Previous donation deferred       1      previous_Hb_defTRUE    0.00380 both  
    ##  4 Year                             0      <NA>                  NA       both  
    ##  5 Warm season                      1      warm_seasonTRUE        0.00353 both  
    ##  6 Consecutive deferrals            0      consecutive_deferr…    0.00385 both  
    ##  7 Recent donations                 1      recent_donations       0.0155  both  
    ##  8 Recent deferrals                 0      recent_deferrals       0.0343  both  
    ##  9 Hour                             1      hour                   0.00206 both  
    ## 10 Previous Hb                      0      previous_Hb            0.0975  both  
    ## # … with 12 more rows
…
